index.utf8
…
library(tidyverse)
data <-  read_csv("data/data.csv")
wide_data <- data %>%
  pivot_wider(names_from = treatment, values_from = c(n_circles, creativity_score))

wide_data <- wide_data %>%
  mutate(relative_difference_n = (n_circles_after - n_circles_before)/(n_circles_after + n_circles_before), relative_difference_creativity = (creativity_score_after - creativity_score_before)/(creativity_score_after + creativity_score_before)) 

data

## # A tibble: 40 x 5
##      rep duration_outside treatment n_circles creativity_score
##    <dbl>            <dbl> <chr>         <dbl>            <dbl>
##  1     1              2   before            8                3
##  2     1              2   after            10                4
##  3     2              3   before            5                3
##  4     2              3   after             8                5
##  5     3             15   before            8                4
##  6     3             15   after            10                5
##  7     4              3   before            6                3
##  8     4              3   after             7                4
##  9     5              2.5 before            3                3
## 10     5              2.5 after             8                4
## #  with 30 more rows
